module packer-plugin-sshkey

go 1.16

require (
	github.com/armon/go-metrics v0.3.10 // indirect
	github.com/aws/aws-sdk-go v1.43.12 // indirect
	github.com/fatih/color v1.13.0 // indirect
	github.com/hashicorp/consul/api v1.12.0 // indirect
	github.com/hashicorp/go-hclog v1.1.0 // indirect
	github.com/hashicorp/go-secure-stdlib/mlock v0.1.2 // indirect
	github.com/hashicorp/go-secure-stdlib/parseutil v0.1.3 // indirect
	github.com/hashicorp/go-secure-stdlib/strutil v0.1.2 // indirect
	github.com/hashicorp/go-version v1.4.0 // indirect
	github.com/hashicorp/hcl/v2 v2.13.0
	github.com/hashicorp/packer-plugin-sdk v0.3.1
	github.com/hashicorp/serf v0.9.7 // indirect
	github.com/hashicorp/vault/api v1.4.1 // indirect
	github.com/hashicorp/yamux v0.0.0-20211028200310-0bc27b27de87 // indirect
	github.com/mattn/go-colorable v0.1.12 // indirect
	github.com/mitchellh/copystructure v1.2.0 // indirect
	github.com/mitchellh/mapstructure v1.4.3 // indirect
	github.com/oklog/run v1.1.0 // indirect
	github.com/ugorji/go v1.2.7 // indirect
	github.com/zclconf/go-cty v1.10.0
	golang.org/x/crypto v0.0.0-20220517005047-85d78b3ac167
	golang.org/x/net v0.0.0-20220225172249-27dd8689420f // indirect
	golang.org/x/sys v0.0.0-20220227234510-4e6760a101f9 // indirect
	golang.org/x/time v0.0.0-20220224211638-0e9765cccd65 // indirect
	google.golang.org/genproto v0.0.0-20220304144024-325a89244dc8 // indirect
)
